[gd_scene load_steps=2 format=2]

[ext_resource path="res://scenes/subscenes/player_controller.tscn" type="PackedScene" id=1]

[node name="Node2D" type="Node2D"]

[node name="level" type="Node2D" parent="."]

[node name="background" type="TileMap" parent="level"]
cell_size = Vector2( 16, 16 )
format = 1

[node name="foreground" type="TileMap" parent="level"]
cell_size = Vector2( 16, 16 )
format = 1

[node name="player_controller" parent="." instance=ExtResource( 1 )]

[node name="Camera2D" type="Camera2D" parent="player_controller"]
current = true
